[
    {
    "title": "Toyota Corolla",
    "price": 20,
    "imgUrl": "https://dr.savee-cdn.com/things/5/9/bfed13c6f371216d59e1d1.webp",
    "article": 11421409,
    "color": "red"
    },
    {
        "title": "Toyota RAV4 ",
        "price": 30,
        "imgUrl": "https://dr.savee-cdn.com/things/5/a/c28b86137a514a34c3728b.webp",
        "article":21421408 ,
        "color": "blue"
        },
        {
            "title": "Ford F-Series ",
            "price": 40,
            "imgUrl": "https://dr.savee-cdn.com/things/6/1/16b28fcddd787c8296276b.webp",
            "article":31421408 ,
            "color": "black"
            },
            {
                "title": "Tesla Model Y",
                "price": 50,
                "imgUrl": "https://dr.savee-cdn.com/things/6/0/c991d9f72238aedf60707c.webp",
                "article":41421408 ,
                "color": "red"
                },
                {
                    "title": "Tesla Model 3 ",
                    "price": 60,
                    "imgUrl": "https://dr.savee-cdn.com/things/6/1/977b50947d84e487eb992f.webp",
                    "article": 51421408,
                    "color": "orang"
                    },
                    {
                        "title": "Toyota Camry",
                        "price": 70,
                        "imgUrl": "https://dr.savee-cdn.com/things/6/2/b26c181101c448a4bd48e5.webp",
                        "article":61421408 ,
                        "color": "yellow"
                        },
                        {
                            "title": "Honda CR-V ",
                            "price": 80,
                            "imgUrl": "https://dr.savee-cdn.com/things/5/a/9d5f55ac7e7018d1a1cd98.webp",
                            "article":71421408 ,
                            "color": "white"
                            },
                            {
                                "title": "Chevrolet Silverado ",
                                "price": 90,
                                "imgUrl": "https://dr.savee-cdn.com/things/6/2/6ef1c33b0b5addef62da6b.webp",
                                "article":81421408 ,
                                "color": "red"
                                },
                                {
                                    "title": "Ram Pickup ",
                                    "price": 85,
                                    "imgUrl": "https://dr.savee-cdn.com/things/5/9/d5d9588c02225d6631df5c.webp",
                                    "article":91421408 ,
                                    "color": "black"
                                    },
                                    {
                                        "title": "Toyota Hilux",
                                        "price": 95,
                                        "imgUrl": "https://dr.savee-cdn.com/things/5/9/d5da02faf7af5d2fd86ea0.webp",
                                        "article": 11421408,
                                        "color": "blue"
                                        }
    
]